Lab 1: Census Data Quality for Policy Decisions – UMAIR BIN SAAD - MUSA 5080 Portfolio
…
# Load required packages (hint: you need tidycensus, tidyverse, and knitr)
library(tidyverse)
library(tidycensus)
library(knitr)
# Set your Census API key6454654
census_api_key("42bf8a20a3df1def380f330cf7edad0dd5842ce6")
# Choose your state for analysis - assign it to a variable called my_state
my_state <- get_decennial(geography = "state", 
                          variables = "P13_001N", 
                          year = 2020,
                          sumfile = "dhc")
print(my_state)

# A tibble: 52 × 4
   GEOID NAME                 variable value
   <chr> <chr>                <chr>    <dbl>
 1 09    Connecticut          P13_001N  41.1
 2 10    Delaware             P13_001N  41.1
 3 11    District of Columbia P13_001N  33.9
 4 12    Florida              P13_001N  43  
 5 13    Georgia              P13_001N  37.5
 6 15    Hawaii               P13_001N  40.8
 7 16    Idaho                P13_001N  36.8
 8 17    Illinois             P13_001N  38.8
 9 18    Indiana              P13_001N  38.2
10 19    Iowa                 P13_001N  38.6
# ℹ 42 more rows
…
